lab9/counter.vcd
$date
     Apr 06, 2025       20:45:04
$end

$version
 SystemC 3.0.0-Accellera --- Oct  7 2024 17:21:37
$end

$timescale
     1 ps
$end

$scope module SystemC $end
$var wire    1  aaaaa  clock       $end
$var wire    1  aaaab  reset       $end
$var wire    3  aaaac  led_o [2:0]  $end
$upscope $end
$enddefinitions  $end

$comment
All initial values are dumped below at time 1e-09 sec = 1000 timescale units.
$end

$dumpvars
0aaaaa
0aaaab
b0 aaaac
$end

#2000
1aaaaa
b1 aaaac

#3000
0aaaaa

#4000
1aaaaa
b11 aaaac

#5000
0aaaaa

#6000
1aaaaa
b10 aaaac

#7000
0aaaaa

#8000
1aaaaa
b110 aaaac

#9000
0aaaaa

#10000
1aaaaa
b111 aaaac

#11000
0aaaaa

#12000
1aaaaa
b101 aaaac

#13000
0aaaaa

#14000
1aaaaa
b100 aaaac

#15000
0aaaaa

#16000
1aaaaa
b0 aaaac

#17000
0aaaaa

#18000
1aaaaa
b1 aaaac

#19000
0aaaaa

#20000
1aaaaa
b11 aaaac

#21000
0aaaaa

#22000
1aaaaa
b10 aaaac

#23000
0aaaaa

#24000
1aaaaa
b110 aaaac

#25000
0aaaaa

#26000
1aaaaa
b111 aaaac

#27000
0aaaaa

#28000
1aaaaa
b101 aaaac

#29000
0aaaaa

#30000
1aaaaa
b100 aaaac

#31000
0aaaaa

#32000
1aaaaa
b0 aaaac

#33000
0aaaaa

#34000
1aaaaa
b1 aaaac

#35000
0aaaaa

#36000
1aaaaa
b11 aaaac

#37000
0aaaaa

#38000
1aaaaa
b10 aaaac

#39000
0aaaaa

#40000
1aaaaa
b110 aaaac

#41000
0aaaaa

#42000
1aaaaa
b111 aaaac

#43000
0aaaaa

#44000
1aaaaa
b101 aaaac

#45000
0aaaaa

#46000
1aaaaa
b100 aaaac

#47000
0aaaaa

#48000
1aaaaa
b0 aaaac

#49000
0aaaaa

#50000
1aaaaa
b1 aaaac

#51000
0aaaaa

#52000
1aaaaa
b11 aaaac

#53000
0aaaaa

#54000
1aaaaa
b10 aaaac

#55000
0aaaaa

#56000
1aaaaa
b110 aaaac

#57000
0aaaaa

#58000
1aaaaa
b111 aaaac

#59000
0aaaaa

#60000
1aaaaa
b101 aaaac

#61000
0aaaaa

#62000
1aaaaa
b100 aaaac

#63000
0aaaaa

#64000
1aaaaa
b0 aaaac

#65000
0aaaaa

#66000
1aaaaa
b1 aaaac

#67000
0aaaaa

#68000
1aaaaa
b11 aaaac

#69000
0aaaaa

#70000
1aaaaa
b10 aaaac

#71000
0aaaaa

#72000
1aaaaa
b110 aaaac

#73000
0aaaaa

#74000
1aaaaa
b111 aaaac

#75000
0aaaaa

#76000
1aaaaa
b101 aaaac

#77000
0aaaaa

#78000
1aaaaa
b100 aaaac

#79000
0aaaaa

#80000
1aaaaa
b0 aaaac

#81000
0aaaaa

#82000
1aaaaa
b1 aaaac

#83000
0aaaaa

#84000
1aaaaa
b11 aaaac

#85000
0aaaaa

#86000
1aaaaa
b10 aaaac

#87000
0aaaaa

#88000
1aaaaa
b110 aaaac

#89000
0aaaaa

#90000
1aaaaa
b111 aaaac

#91000
0aaaaa

#92000
1aaaaa
b101 aaaac

#93000
0aaaaa

#94000
1aaaaa
b100 aaaac

#95000
0aaaaa

#96000
1aaaaa
b0 aaaac

#97000
0aaaaa

#98000
1aaaaa
b1 aaaac

#99000
0aaaaa

#100000
1aaaaa
b11 aaaac

#101000
0aaaaa
1aaaab
b0 aaaac

